^C:\USERS\ITAI MARTS\DESKTOP\MINI-PROJECT\FINALSOLUTIONS\RUNNER\RUNNER\RELEASE\RUNNER.OBJ|C:\USERS\ITAI MARTS\DESKTOP\MINI-PROJECT\FINALSOLUTIONS\RUNNER\RUNNER\RELEASE\STDAFX.OBJ
C:\USERS\ITAI MARTS\DESKTOP\MINI-PROJECT\FINALSOLUTIONS\RUNNER\RELEASE\RUNNER.EXE
C:\USERS\ITAI MARTS\DESKTOP\MINI-PROJECT\FINALSOLUTIONS\RUNNER\RELEASE\RUNNER.IPDB
C:\USERS\ITAI MARTS\DESKTOP\MINI-PROJECT\FINALSOLUTIONS\RUNNER\RELEASE\RUNNER.IOBJ
C:\USERS\ITAI MARTS\DESKTOP\MINI-PROJECT\FINALSOLUTIONS\RUNNER\RELEASE\RUNNER.PDB
