^C:\USERS\ITAI MARTS\DESKTOP\MINI-PROJECT\FINALSOLUTIONS\WRITEFILEDLL\WRITEFILEDLL\DEBUG\DLLMAIN.OBJ|C:\USERS\ITAI MARTS\DESKTOP\MINI-PROJECT\FINALSOLUTIONS\WRITEFILEDLL\WRITEFILEDLL\DEBUG\STDAFX.OBJ|C:\USERS\ITAI MARTS\DESKTOP\MINI-PROJECT\FINALSOLUTIONS\WRITEFILEDLL\WRITEFILEDLL\DEBUG\WRITEFILEDLL.OBJ
C:\WINDOWS\GLOBALIZATION\SORTING\SORTDEFAULT.NLS
C:\PROGRAM FILES\WINDOWS KITS\8.1\LIB\WINV6.3\UM\X86\KERNEL32.LIB
C:\PROGRAM FILES\WINDOWS KITS\8.1\LIB\WINV6.3\UM\X86\USER32.LIB
C:\PROGRAM FILES\WINDOWS KITS\8.1\LIB\WINV6.3\UM\X86\GDI32.LIB
C:\PROGRAM FILES\WINDOWS KITS\8.1\LIB\WINV6.3\UM\X86\WINSPOOL.LIB
C:\PROGRAM FILES\WINDOWS KITS\8.1\LIB\WINV6.3\UM\X86\COMDLG32.LIB
C:\PROGRAM FILES\WINDOWS KITS\8.1\LIB\WINV6.3\UM\X86\ADVAPI32.LIB
C:\PROGRAM FILES\WINDOWS KITS\8.1\LIB\WINV6.3\UM\X86\SHELL32.LIB
C:\PROGRAM FILES\WINDOWS KITS\8.1\LIB\WINV6.3\UM\X86\OLE32.LIB
C:\PROGRAM FILES\WINDOWS KITS\8.1\LIB\WINV6.3\UM\X86\OLEAUT32.LIB
C:\PROGRAM FILES\WINDOWS KITS\8.1\LIB\WINV6.3\UM\X86\UUID.LIB
C:\PROGRAM FILES\WINDOWS KITS\8.1\LIB\WINV6.3\UM\X86\ODBC32.LIB
C:\PROGRAM FILES\WINDOWS KITS\8.1\LIB\WINV6.3\UM\X86\ODBCCP32.LIB
C:\USERS\ITAI MARTS\DESKTOP\MINI-PROJECT\FINALSOLUTIONS\WRITEFILEDLL\WRITEFILEDLL\DEBUG\DLLMAIN.OBJ
C:\USERS\ITAI MARTS\DESKTOP\MINI-PROJECT\FINALSOLUTIONS\WRITEFILEDLL\WRITEFILEDLL\DEBUG\STDAFX.OBJ
C:\USERS\ITAI MARTS\DESKTOP\MINI-PROJECT\FINALSOLUTIONS\WRITEFILEDLL\WRITEFILEDLL\DEBUG\WRITEFILEDLL.OBJ
C:\WINDOWS\SYSTEM32\TZRES.DLL
C:\USERS\ITAI MARTS\DESKTOP\DETOURS EXPRESS VERSION 3.0 BUILD_339\EXPRESS\LIB.X86\DETOURS.LIB
C:\PROGRAM FILES\WINDOWS KITS\8.1\LIB\WINV6.3\UM\X86\WS2_32.LIB
C:\PROGRAM FILES\MICROSOFT VISUAL STUDIO 14.0\VC\LIB\MSVCPRTD.LIB
C:\PROGRAM FILES\MICROSOFT VISUAL STUDIO 14.0\VC\LIB\MSVCRTD.LIB
C:\PROGRAM FILES\MICROSOFT VISUAL STUDIO 14.0\VC\LIB\OLDNAMES.LIB
C:\PROGRAM FILES\MICROSOFT VISUAL STUDIO 14.0\VC\LIB\VCRUNTIMED.LIB
C:\PROGRAM FILES\WINDOWS KITS\10\LIB\10.0.10240.0\UCRT\X86\UCRTD.LIB
