^C:\USERS\ITAI MARTS\DESKTOP\MINI-PROJECT\FINALSOLUTIONS\PRCESSES SERVER\PRCESSES SERVER\STDAFX.CPP
/c /ZI /nologo /W3 /WX- /sdl /Od /Oy- /D WIN32 /D _CRT_SECURE_NO_WARNINGS /Gm /EHsc /RTC1 /MDd /GS /fp:precise /Zc:wchar_t /Zc:forScope /Zc:inline /Yc"stdafx.h" /Fp"DEBUG\PRCESSES SERVER.PCH" /Fo"DEBUG\\" /Fd"DEBUG\VC140.PDB" /Gd /TP /analyze- C:\USERS\ITAI MARTS\DESKTOP\MINI-PROJECT\FINALSOLUTIONS\PRCESSES SERVER\PRCESSES SERVER\STDAFX.CPP
^C:\USERS\ITAI MARTS\DESKTOP\MINI-PROJECT\FINALSOLUTIONS\PRCESSES SERVER\PRCESSES SERVER\PRCESSES SERVER.CPP
/c /ZI /nologo /W3 /WX- /sdl /Od /Oy- /D WIN32 /D _CRT_SECURE_NO_WARNINGS /Gm /EHsc /RTC1 /MDd /GS /fp:precise /Zc:wchar_t /Zc:forScope /Zc:inline /Yu"stdafx.h" /Fp"DEBUG\PRCESSES SERVER.PCH" /Fo"DEBUG\\" /Fd"DEBUG\VC140.PDB" /Gd /TP /analyze- C:\USERS\ITAI MARTS\DESKTOP\MINI-PROJECT\FINALSOLUTIONS\PRCESSES SERVER\PRCESSES SERVER\PRCESSES SERVER.CPP
