^C:\USERS\ITAI MARTS\DESKTOP\MINI-PROJECT\FINALSOLUTIONS\PROCESSLISTENER\PROCESSLISTENER\STDAFX.CPP
C:\USERS\ITAI MARTS\DESKTOP\MINI-PROJECT\FINALSOLUTIONS\PROCESSLISTENER\PROCESSLISTENER\DEBUG\PROCESSLISTENER.PCH
C:\USERS\ITAI MARTS\DESKTOP\MINI-PROJECT\FINALSOLUTIONS\PROCESSLISTENER\PROCESSLISTENER\DEBUG\VC140.PDB
C:\USERS\ITAI MARTS\DESKTOP\MINI-PROJECT\FINALSOLUTIONS\PROCESSLISTENER\PROCESSLISTENER\DEBUG\VC140.IDB
C:\USERS\ITAI MARTS\DESKTOP\MINI-PROJECT\FINALSOLUTIONS\PROCESSLISTENER\PROCESSLISTENER\DEBUG\STDAFX.OBJ
^C:\USERS\ITAI MARTS\DESKTOP\MINI-PROJECT\FINALSOLUTIONS\PROCESSLISTENER\PROCESSLISTENER\PROCESSLISTENER.CPP
C:\USERS\ITAI MARTS\DESKTOP\MINI-PROJECT\FINALSOLUTIONS\PROCESSLISTENER\PROCESSLISTENER\DEBUG\VC140.PDB
C:\USERS\ITAI MARTS\DESKTOP\MINI-PROJECT\FINALSOLUTIONS\PROCESSLISTENER\PROCESSLISTENER\DEBUG\VC140.IDB
C:\USERS\ITAI MARTS\DESKTOP\MINI-PROJECT\FINALSOLUTIONS\PROCESSLISTENER\PROCESSLISTENER\DEBUG\PROCESSLISTENER.OBJ
